digraph "/home/paulina/Documents/PO_2021/po_2021/Dron3/inc/Czesci_dron.hh"
{
 // LATEX_PDF_SIZE
  edge [fontname="Helvetica",fontsize="10",labelfontname="Helvetica",labelfontsize="10"];
  node [fontname="Helvetica",fontsize="10",shape=record];
  Node1 [label="/home/paulina/Documents\l/PO_2021/po_2021/Dron3\l/inc/Czesci_dron.hh",height=0.2,width=0.4,color="black", fillcolor="grey75", style="filled", fontcolor="black",tooltip="Definicje klas potrzebnych do stworznia drona."];
  Node1 -> Node2 [dir="back",color="midnightblue",fontsize="10",style="solid",fontname="Helvetica"];
  Node2 [label="/home/paulina/Documents\l/PO_2021/po_2021/Dron3\l/inc/Drony.hh",height=0.2,width=0.4,color="black", fillcolor="white", style="filled",URL="$_drony_8hh.html",tooltip="Definicje klas modelujących różne drony."];
  Node2 -> Node3 [dir="back",color="midnightblue",fontsize="10",style="solid",fontname="Helvetica"];
  Node3 [label="/home/paulina/Documents\l/PO_2021/po_2021/Dron3\l/inc/Scena.hh",height=0.2,width=0.4,color="black", fillcolor="white", style="filled",URL="$_scena_8hh.html",tooltip="Definicje klasy Scena."];
  Node3 -> Node4 [dir="back",color="midnightblue",fontsize="10",style="solid",fontname="Helvetica"];
  Node4 [label="/home/paulina/Documents\l/PO_2021/po_2021/Dron3\l/src/main.cpp",height=0.2,width=0.4,color="black", fillcolor="white", style="filled",URL="$main_8cpp.html",tooltip=" "];
  Node3 -> Node5 [dir="back",color="midnightblue",fontsize="10",style="solid",fontname="Helvetica"];
  Node5 [label="/home/paulina/Documents\l/PO_2021/po_2021/Dron3\l/src/Scena.cpp",height=0.2,width=0.4,color="black", fillcolor="white", style="filled",URL="$_scena_8cpp.html",tooltip="Definicje metod klasy Scena."];
  Node2 -> Node6 [dir="back",color="midnightblue",fontsize="10",style="solid",fontname="Helvetica"];
  Node6 [label="/home/paulina/Documents\l/PO_2021/po_2021/Dron3\l/src/Drony.cpp",height=0.2,width=0.4,color="black", fillcolor="white", style="filled",URL="$_drony_8cpp.html",tooltip="Definicja metod klas modelujących różne drony."];
  Node2 -> Node4 [dir="back",color="midnightblue",fontsize="10",style="solid",fontname="Helvetica"];
  Node1 -> Node7 [dir="back",color="midnightblue",fontsize="10",style="solid",fontname="Helvetica"];
  Node7 [label="/home/paulina/Documents\l/PO_2021/po_2021/Dron3\l/inc/Elem_krajobrazu.hh",height=0.2,width=0.4,color="black", fillcolor="white", style="filled",URL="$_elem__krajobrazu_8hh.html",tooltip="Definicje klas modelujących różne elementy krajobrazu."];
  Node7 -> Node3 [dir="back",color="midnightblue",fontsize="10",style="solid",fontname="Helvetica"];
  Node7 -> Node8 [dir="back",color="midnightblue",fontsize="10",style="solid",fontname="Helvetica"];
  Node8 [label="/home/paulina/Documents\l/PO_2021/po_2021/Dron3\l/src/Elem_krajobrazu.cpp",height=0.2,width=0.4,color="black", fillcolor="white", style="filled",URL="$_elem__krajobrazu_8cpp.html",tooltip="Definicja metod klas Plaskowyz, Wzgorze i Plaskowyz_prost."];
  Node7 -> Node4 [dir="back",color="midnightblue",fontsize="10",style="solid",fontname="Helvetica"];
  Node1 -> Node3 [dir="back",color="midnightblue",fontsize="10",style="solid",fontname="Helvetica"];
  Node1 -> Node9 [dir="back",color="midnightblue",fontsize="10",style="solid",fontname="Helvetica"];
  Node9 [label="/home/paulina/Documents\l/PO_2021/po_2021/Dron3\l/src/Czesci_dron.cpp",height=0.2,width=0.4,color="black", fillcolor="white", style="filled",URL="$_czesci__dron_8cpp.html",tooltip="Definicja metod klas Uklad_W, Prostopadloscian i Graniastoslup6."];
  Node1 -> Node4 [dir="back",color="midnightblue",fontsize="10",style="solid",fontname="Helvetica"];
}
