digraph "/home/paulina/Documents/PO_2021/po_2021/Dron3/inc/Scena.hh"
{
 // LATEX_PDF_SIZE
  edge [fontname="Helvetica",fontsize="10",labelfontname="Helvetica",labelfontsize="10"];
  node [fontname="Helvetica",fontsize="10",shape=record];
  Node1 [label="/home/paulina/Documents\l/PO_2021/po_2021/Dron3\l/inc/Scena.hh",height=0.2,width=0.4,color="black", fillcolor="grey75", style="filled", fontcolor="black",tooltip="Definicje klasy Scena."];
  Node1 -> Node2 [dir="back",color="midnightblue",fontsize="10",style="solid",fontname="Helvetica"];
  Node2 [label="/home/paulina/Documents\l/PO_2021/po_2021/Dron3\l/src/main.cpp",height=0.2,width=0.4,color="black", fillcolor="white", style="filled",URL="$main_8cpp.html",tooltip=" "];
  Node1 -> Node3 [dir="back",color="midnightblue",fontsize="10",style="solid",fontname="Helvetica"];
  Node3 [label="/home/paulina/Documents\l/PO_2021/po_2021/Dron3\l/src/Scena.cpp",height=0.2,width=0.4,color="black", fillcolor="white", style="filled",URL="$_scena_8cpp.html",tooltip="Definicje metod klasy Scena."];
}
