digraph "Dron::get_promien"
{
 // LATEX_PDF_SIZE
  edge [fontname="Helvetica",fontsize="10",labelfontname="Helvetica",labelfontsize="10"];
  node [fontname="Helvetica",fontsize="10",shape=record];
  rankdir="RL";
  Node1 [label="Dron::get_promien",height=0.2,width=0.4,color="black", fillcolor="grey75", style="filled", fontcolor="black",tooltip="udostępnia odległość od środka do wierchołka korpusu Potrzebne do sprawdzania możliwości lądowania"];
  Node1 -> Node2 [dir="back",color="midnightblue",fontsize="10",style="solid",fontname="Helvetica"];
  Node2 [label="Dron::czy_nad",height=0.2,width=0.4,color="black", fillcolor="white", style="filled",URL="$class_dron.html#a854b507a448cc9f6daf315aaa71e68f6",tooltip="sprawdza czy nad elementem znajduje dron"];
}
