digraph "Uklad_W::Przelicz_wierzcholek_do_globalnego"
{
 // LATEX_PDF_SIZE
  edge [fontname="Helvetica",fontsize="10",labelfontname="Helvetica",labelfontsize="10"];
  node [fontname="Helvetica",fontsize="10",shape=record];
  rankdir="LR";
  Node1 [label="Uklad_W::Przelicz_wierzcholek\l_do_globalnego",height=0.2,width=0.4,color="black", fillcolor="grey75", style="filled", fontcolor="black",tooltip="Przelicza wierzchołek(wektor) do układu globalnego."];
  Node1 -> Node2 [color="midnightblue",fontsize="10",style="solid",fontname="Helvetica"];
  Node2 [label="Uklad_W::Przelicz_uklad\l_do_globalnego",height=0.2,width=0.4,color="black", fillcolor="white", style="filled",URL="$class_uklad___w.html#afe1d5e5ff1d0aa1dd2fcbd9273ce4b4d",tooltip="Przelicza układ do układu globalnego."];
}
