digraph "Plaskowyz::get_srodek"
{
 // LATEX_PDF_SIZE
  edge [fontname="Helvetica",fontsize="10",labelfontname="Helvetica",labelfontsize="10"];
  node [fontname="Helvetica",fontsize="10",shape=record];
  rankdir="RL";
  Node1 [label="Plaskowyz::get_srodek",height=0.2,width=0.4,color="black", fillcolor="grey75", style="filled", fontcolor="black",tooltip="udostępnia srodek elementu Potrzebne do animacji lotu i wypisywania elementów krajobrazu"];
  Node1 -> Node2 [dir="back",color="midnightblue",fontsize="10",style="solid",fontname="Helvetica"];
  Node2 [label="Plaskowyz::czy_ladowac",height=0.2,width=0.4,color="black", fillcolor="white", style="filled",URL="$class_plaskowyz.html#a0e201d70841bdcf8bbd3844ad3cf098d",tooltip="zwraca informacje czy na tym elemencie można lądować"];
  Node1 -> Node3 [dir="back",color="midnightblue",fontsize="10",style="solid",fontname="Helvetica"];
  Node3 [label="Plaskowyz::czy_nad",height=0.2,width=0.4,color="black", fillcolor="white", style="filled",URL="$class_plaskowyz.html#a2a2131671cbf9cab43f8586a3e48092e",tooltip="sprawdza czy nad elementem znajduje dron"];
}
