digraph "Dron2::przekrec_wirniki"
{
 // LATEX_PDF_SIZE
  edge [fontname="Helvetica",fontsize="10",labelfontname="Helvetica",labelfontsize="10"];
  node [fontname="Helvetica",fontsize="10",shape=record];
  rankdir="LR";
  Node1 [label="Dron2::przekrec_wirniki",height=0.2,width=0.4,color="black", fillcolor="grey75", style="filled", fontcolor="black",tooltip="przekręca wszystkie wirniki o 15 stopni i rysuje dron"];
  Node1 -> Node2 [color="midnightblue",fontsize="10",style="solid",fontname="Helvetica"];
  Node2 [label="Dron2::rysuj",height=0.2,width=0.4,color="black", fillcolor="white", style="filled",URL="$class_dron2.html#a09ebc7f15d5a025630c8dc839fcd103c",tooltip="rysuje rysunek odpowiedniego kształtu w gnuplocie"];
  Node2 -> Node3 [color="midnightblue",fontsize="10",style="solid",fontname="Helvetica"];
  Node3 [label="Prostopadloscian::rysuj",height=0.2,width=0.4,color="black", fillcolor="white", style="filled",URL="$class_prostopadloscian.html#ab0f6ef8f0e135f8b61b0b5975c76e233",tooltip="rysuje rysunek odpowiedniego kształtu w gnuplocie"];
  Node3 -> Node4 [color="midnightblue",fontsize="10",style="solid",fontname="Helvetica"];
  Node4 [label="drawNS::Draw3DAPI::\ldraw_polyhedron",height=0.2,width=0.4,color="black", fillcolor="white", style="filled",URL="$classdraw_n_s_1_1_draw3_d_a_p_i.html#a5e528a44b66c29469a30f54c59223f11",tooltip="draws polyhedron described by its apexs"];
  Node3 -> Node5 [color="midnightblue",fontsize="10",style="solid",fontname="Helvetica"];
  Node5 [label="konwertuj",height=0.2,width=0.4,color="black", fillcolor="white", style="filled",URL="$_czesci__dron_8cpp.html#ad2035b09e2a8740a1d64e425b09f2e3e",tooltip="konwertuje Wektor na Point3D (potrzebne do rysowania)"];
  Node3 -> Node6 [color="midnightblue",fontsize="10",style="solid",fontname="Helvetica"];
  Node6 [label="Uklad_W::Przelicz_wierzcholek\l_do_globalnego",height=0.2,width=0.4,color="black", fillcolor="white", style="filled",URL="$class_uklad___w.html#ac4762243db4657683cf1bfa2ff21440d",tooltip="Przelicza wierzchołek(wektor) do układu globalnego."];
  Node6 -> Node7 [color="midnightblue",fontsize="10",style="solid",fontname="Helvetica"];
  Node7 [label="Uklad_W::Przelicz_uklad\l_do_globalnego",height=0.2,width=0.4,color="black", fillcolor="white", style="filled",URL="$class_uklad___w.html#afe1d5e5ff1d0aa1dd2fcbd9273ce4b4d",tooltip="Przelicza układ do układu globalnego."];
  Node1 -> Node8 [color="midnightblue",fontsize="10",style="solid",fontname="Helvetica"];
  Node8 [label="Dron2::usun_rys",height=0.2,width=0.4,color="black", fillcolor="white", style="filled",URL="$class_dron2.html#aab835edf5cfd2233d84f9ba99482ed8a",tooltip="usuwa rysunek po jego id"];
  Node8 -> Node9 [color="midnightblue",fontsize="10",style="solid",fontname="Helvetica"];
  Node9 [label="Prostopadloscian::usun_rys",height=0.2,width=0.4,color="black", fillcolor="white", style="filled",URL="$class_prostopadloscian.html#ade39320765df49779864699a4470abe5",tooltip="usuwa rysunek po jego id"];
  Node9 -> Node10 [color="midnightblue",fontsize="10",style="solid",fontname="Helvetica"];
  Node10 [label="drawNS::Draw3DAPI::\lerase_shape",height=0.2,width=0.4,color="black", fillcolor="white", style="filled",URL="$classdraw_n_s_1_1_draw3_d_a_p_i.html#ab90eae31dff8403261611ab5f3217357",tooltip="erase shape by id"];
}
