digraph "Dron::get_wysokosc"
{
 // LATEX_PDF_SIZE
  edge [fontname="Helvetica",fontsize="10",labelfontname="Helvetica",labelfontsize="10"];
  node [fontname="Helvetica",fontsize="10",shape=record];
  rankdir="LR";
  Node1 [label="Dron::get_wysokosc",height=0.2,width=0.4,color="black", fillcolor="grey75", style="filled", fontcolor="black",tooltip="udostępnia wysokość korpusu drona Potrzebne do animacji lądowania"];
  Node1 -> Node2 [color="midnightblue",fontsize="10",style="solid",fontname="Helvetica"];
  Node2 [label="Prostopadloscian::get\l_wysokosc",height=0.2,width=0.4,color="black", fillcolor="white", style="filled",URL="$class_prostopadloscian.html#aea74b3341c92aefa081d07ce669504f1",tooltip="udostępnia wysokość prostopadłościanu Potrzebne do animacji lądowania"];
}
