digraph "Dron2::get_promien"
{
 // LATEX_PDF_SIZE
  edge [fontname="Helvetica",fontsize="10",labelfontname="Helvetica",labelfontsize="10"];
  node [fontname="Helvetica",fontsize="10",shape=record];
  rankdir="RL";
  Node1 [label="Dron2::get_promien",height=0.2,width=0.4,color="black", fillcolor="grey75", style="filled", fontcolor="black",tooltip="udostępnia odległość od środka do wierchołka korpusu Potrzebne do sprawdzania możliwości lądowania"];
  Node1 -> Node2 [dir="back",color="midnightblue",fontsize="10",style="solid",fontname="Helvetica"];
  Node2 [label="Dron2::czy_nad",height=0.2,width=0.4,color="black", fillcolor="white", style="filled",URL="$class_dron2.html#ae1135a53e4ec2fa6fb544ba662737c10",tooltip="sprawdza czy nad elementem znajduje dron"];
}
