digraph "Dron::rysuj"
{
 // LATEX_PDF_SIZE
  edge [fontname="Helvetica",fontsize="10",labelfontname="Helvetica",labelfontsize="10"];
  node [fontname="Helvetica",fontsize="10",shape=record];
  rankdir="RL";
  Node1 [label="Dron::rysuj",height=0.2,width=0.4,color="black", fillcolor="grey75", style="filled", fontcolor="black",tooltip="rysuje rysunek odpowiedniego kształtu w gnuplocie"];
  Node1 -> Node2 [dir="back",color="midnightblue",fontsize="10",style="solid",fontname="Helvetica"];
  Node2 [label="Dron::lec_gora",height=0.2,width=0.4,color="black", fillcolor="white", style="filled",URL="$class_dron.html#aa39c3eac75456d80933f049440c99efd",tooltip="przesuwa środek drona o zadana wartość w górę i rysuje dron"];
  Node1 -> Node3 [dir="back",color="midnightblue",fontsize="10",style="solid",fontname="Helvetica"];
  Node3 [label="Dron::lec_przod",height=0.2,width=0.4,color="black", fillcolor="white", style="filled",URL="$class_dron.html#a861e18bee8fd10c6e861ee5916e32cf9",tooltip="przesuwa środek drona o zadana wartość w przód i rysuje dron"];
  Node1 -> Node4 [dir="back",color="midnightblue",fontsize="10",style="solid",fontname="Helvetica"];
  Node4 [label="Dron::obroc",height=0.2,width=0.4,color="black", fillcolor="white", style="filled",URL="$class_dron.html#adaa5e2ad1fd292bc4f96b1ed206c5158",tooltip="obraca dron o zadany kąt"];
  Node1 -> Node5 [dir="back",color="midnightblue",fontsize="10",style="solid",fontname="Helvetica"];
  Node5 [label="Dron::przekrec_wirniki",height=0.2,width=0.4,color="black", fillcolor="white", style="filled",URL="$class_dron.html#adce34368d78040533ecf80dab84247b5",tooltip="przekręca wszystkie wirniki o 15 stopni i rysuje dron"];
}
