digraph "drawNS::Draw3DAPI::erase_shape"
{
 // LATEX_PDF_SIZE
  edge [fontname="Helvetica",fontsize="10",labelfontname="Helvetica",labelfontsize="10"];
  node [fontname="Helvetica",fontsize="10",shape=record];
  rankdir="RL";
  Node1 [label="drawNS::Draw3DAPI::\lerase_shape",height=0.2,width=0.4,color="black", fillcolor="grey75", style="filled", fontcolor="black",tooltip="erase shape by id"];
  Node1 -> Node2 [dir="back",color="midnightblue",fontsize="10",style="solid",fontname="Helvetica"];
  Node2 [label="Plaskowyz::usun_rys",height=0.2,width=0.4,color="black", fillcolor="white", style="filled",URL="$class_plaskowyz.html#af587f4a8927a298237657d120e5fed0c",tooltip="usuwa rysunek po jego id"];
  Node1 -> Node3 [dir="back",color="midnightblue",fontsize="10",style="solid",fontname="Helvetica"];
  Node3 [label="Wzgorze::usun_rys",height=0.2,width=0.4,color="black", fillcolor="white", style="filled",URL="$class_wzgorze.html#a6986933490d558cbec60b106fd29f047",tooltip="usuwa rysunek po jego id"];
  Node1 -> Node4 [dir="back",color="midnightblue",fontsize="10",style="solid",fontname="Helvetica"];
  Node4 [label="Prostopadloscian::usun_rys",height=0.2,width=0.4,color="black", fillcolor="white", style="filled",URL="$class_prostopadloscian.html#ade39320765df49779864699a4470abe5",tooltip="usuwa rysunek po jego id"];
  Node4 -> Node5 [dir="back",color="midnightblue",fontsize="10",style="solid",fontname="Helvetica"];
  Node5 [label="Dron::usun_rys",height=0.2,width=0.4,color="black", fillcolor="white", style="filled",URL="$class_dron.html#a41acc5eb6f95fdfeac12271e0269e6fc",tooltip="usuwa rysunek po jego id"];
  Node5 -> Node6 [dir="back",color="midnightblue",fontsize="10",style="solid",fontname="Helvetica"];
  Node6 [label="Dron::lec_gora",height=0.2,width=0.4,color="black", fillcolor="white", style="filled",URL="$class_dron.html#aa39c3eac75456d80933f049440c99efd",tooltip="przesuwa środek drona o zadana wartość w górę i rysuje dron"];
  Node5 -> Node7 [dir="back",color="midnightblue",fontsize="10",style="solid",fontname="Helvetica"];
  Node7 [label="Dron::lec_przod",height=0.2,width=0.4,color="black", fillcolor="white", style="filled",URL="$class_dron.html#a861e18bee8fd10c6e861ee5916e32cf9",tooltip="przesuwa środek drona o zadana wartość w przód i rysuje dron"];
  Node5 -> Node8 [dir="back",color="midnightblue",fontsize="10",style="solid",fontname="Helvetica"];
  Node8 [label="Dron::obroc",height=0.2,width=0.4,color="black", fillcolor="white", style="filled",URL="$class_dron.html#adaa5e2ad1fd292bc4f96b1ed206c5158",tooltip="obraca dron o zadany kąt"];
  Node5 -> Node9 [dir="back",color="midnightblue",fontsize="10",style="solid",fontname="Helvetica"];
  Node9 [label="Dron::przekrec_wirniki",height=0.2,width=0.4,color="black", fillcolor="white", style="filled",URL="$class_dron.html#adce34368d78040533ecf80dab84247b5",tooltip="przekręca wszystkie wirniki o 15 stopni i rysuje dron"];
  Node4 -> Node10 [dir="back",color="midnightblue",fontsize="10",style="solid",fontname="Helvetica"];
  Node10 [label="Dron2::usun_rys",height=0.2,width=0.4,color="black", fillcolor="white", style="filled",URL="$class_dron2.html#aab835edf5cfd2233d84f9ba99482ed8a",tooltip="usuwa rysunek po jego id"];
  Node10 -> Node11 [dir="back",color="midnightblue",fontsize="10",style="solid",fontname="Helvetica"];
  Node11 [label="Dron2::lec_gora",height=0.2,width=0.4,color="black", fillcolor="white", style="filled",URL="$class_dron2.html#ae35b9d01f6d5174b9f0850a8072e8dc3",tooltip="przesuwa środek drona o zadana wartość w górę i rysuje dron"];
  Node10 -> Node12 [dir="back",color="midnightblue",fontsize="10",style="solid",fontname="Helvetica"];
  Node12 [label="Dron2::lec_przod",height=0.2,width=0.4,color="black", fillcolor="white", style="filled",URL="$class_dron2.html#a421c3dc00fe67b62087050fc13ead116",tooltip="przesuwa środek drona o zadana wartość w przód i rysuje dron"];
  Node10 -> Node13 [dir="back",color="midnightblue",fontsize="10",style="solid",fontname="Helvetica"];
  Node13 [label="Dron2::obroc",height=0.2,width=0.4,color="black", fillcolor="white", style="filled",URL="$class_dron2.html#ae50e42b31d6260869ee01f1b46511905",tooltip="obraca dron o zadany kąt"];
  Node10 -> Node14 [dir="back",color="midnightblue",fontsize="10",style="solid",fontname="Helvetica"];
  Node14 [label="Dron2::przekrec_wirniki",height=0.2,width=0.4,color="black", fillcolor="white", style="filled",URL="$class_dron2.html#a008bca2f5a761489ed67218027407e88",tooltip="przekręca wszystkie wirniki o 15 stopni i rysuje dron"];
  Node4 -> Node15 [dir="back",color="midnightblue",fontsize="10",style="solid",fontname="Helvetica"];
  Node15 [label="Dron3::usun_rys",height=0.2,width=0.4,color="black", fillcolor="white", style="filled",URL="$class_dron3.html#a24e772b527af8ccffd1a11659e761625",tooltip="usuwa rysunek po jego id"];
  Node15 -> Node16 [dir="back",color="midnightblue",fontsize="10",style="solid",fontname="Helvetica"];
  Node16 [label="Dron3::lec_gora",height=0.2,width=0.4,color="black", fillcolor="white", style="filled",URL="$class_dron3.html#acd289a13711d24f1989db81702fb8fc9",tooltip="przesuwa środek drona o zadana wartość w górę i rysuje dron"];
  Node15 -> Node17 [dir="back",color="midnightblue",fontsize="10",style="solid",fontname="Helvetica"];
  Node17 [label="Dron3::lec_przod",height=0.2,width=0.4,color="black", fillcolor="white", style="filled",URL="$class_dron3.html#a2eab44bafc7077eedc616b6f8e02f07d",tooltip="przesuwa środek drona o zadana wartość w przód i rysuje dron"];
  Node15 -> Node18 [dir="back",color="midnightblue",fontsize="10",style="solid",fontname="Helvetica"];
  Node18 [label="Dron3::obroc",height=0.2,width=0.4,color="black", fillcolor="white", style="filled",URL="$class_dron3.html#a56ea993a4cc480a0792f1bd077f2f0df",tooltip="obraca dron o zadany kąt"];
  Node15 -> Node19 [dir="back",color="midnightblue",fontsize="10",style="solid",fontname="Helvetica"];
  Node19 [label="Dron3::przekrec_wirniki",height=0.2,width=0.4,color="black", fillcolor="white", style="filled",URL="$class_dron3.html#a2df732b7f78a35ae1c4b7eec76da8f28",tooltip="przekręca wszystkie wirniki o 15 stopni i rysuje dron"];
  Node1 -> Node20 [dir="back",color="midnightblue",fontsize="10",style="solid",fontname="Helvetica"];
  Node20 [label="Graniastoslup6::usun_rys",height=0.2,width=0.4,color="black", fillcolor="white", style="filled",URL="$class_graniastoslup6.html#af265f59b575f2971ad827f7e98b40dd1",tooltip="usuwa rysunek po jego id"];
  Node1 -> Node21 [dir="back",color="midnightblue",fontsize="10",style="solid",fontname="Helvetica"];
  Node21 [label="Powierzchnia::usun_rys",height=0.2,width=0.4,color="black", fillcolor="white", style="filled",URL="$class_powierzchnia.html#adce06928ff8cbf871f02cbfe579d0396",tooltip="usuwa rysunek po jego id"];
}
