digraph "Plaskowyz::czy_nad"
{
 // LATEX_PDF_SIZE
  edge [fontname="Helvetica",fontsize="10",labelfontname="Helvetica",labelfontsize="10"];
  node [fontname="Helvetica",fontsize="10",shape=record];
  rankdir="LR";
  Node1 [label="Plaskowyz::czy_nad",height=0.2,width=0.4,color="black", fillcolor="grey75", style="filled", fontcolor="black",tooltip="sprawdza czy nad elementem znajduje dron"];
  Node1 -> Node2 [color="midnightblue",fontsize="10",style="solid",fontname="Helvetica"];
  Node2 [label="Wektor::dlugosc",height=0.2,width=0.4,color="black", fillcolor="white", style="filled",URL="$class_wektor.html#aef36835ad926da083c34459291230673",tooltip="Oblicza dlugosc wektora."];
  Node1 -> Node3 [color="midnightblue",fontsize="10",style="solid",fontname="Helvetica"];
  Node3 [label="Plaskowyz::get_srodek",height=0.2,width=0.4,color="black", fillcolor="white", style="filled",URL="$class_plaskowyz.html#acb31cbbde10da7cc8af349444c7b7055",tooltip="udostępnia srodek elementu Potrzebne do animacji lotu i wypisywania elementów krajobrazu"];
}
