digraph "Powierzchnia"
{
 // LATEX_PDF_SIZE
  edge [fontname="Helvetica",fontsize="10",labelfontname="Helvetica",labelfontsize="10"];
  node [fontname="Helvetica",fontsize="10",shape=record];
  Node1 [label="Powierzchnia",height=0.2,width=0.4,color="black", fillcolor="grey75", style="filled", fontcolor="black",tooltip="Modeluje pojęcie klasy Powierzchnia Modeluje pojęcie pojęcie klasy Powierzchnia jako plaskiej powierz..."];
  Node2 -> Node1 [dir="back",color="midnightblue",fontsize="10",style="solid",fontname="Helvetica"];
  Node2 [label="Interfejs_rysowanie",height=0.2,width=0.4,color="black", fillcolor="white", style="filled",URL="$class_interfejs__rysowanie.html",tooltip="Modeluje pojęcie interfejsu rysowania."];
}
