digraph "Plaskowyz_prost::rysuj"
{
 // LATEX_PDF_SIZE
  edge [fontname="Helvetica",fontsize="10",labelfontname="Helvetica",labelfontsize="10"];
  node [fontname="Helvetica",fontsize="10",shape=record];
  rankdir="LR";
  Node1 [label="Plaskowyz_prost::rysuj",height=0.2,width=0.4,color="black", fillcolor="grey75", style="filled", fontcolor="black",tooltip="rysuje rysunek odpowiedniego kształtu w gnuplocie"];
  Node1 -> Node2 [color="midnightblue",fontsize="10",style="solid",fontname="Helvetica"];
  Node2 [label="drawNS::Draw3DAPI::\ldraw_polyhedron",height=0.2,width=0.4,color="black", fillcolor="white", style="filled",URL="$classdraw_n_s_1_1_draw3_d_a_p_i.html#a5e528a44b66c29469a30f54c59223f11",tooltip="draws polyhedron described by its apexs"];
  Node1 -> Node3 [color="midnightblue",fontsize="10",style="solid",fontname="Helvetica"];
  Node3 [label="konwertuj",height=0.2,width=0.4,color="black", fillcolor="white", style="filled",URL="$_czesci__dron_8hh.html#ad2035b09e2a8740a1d64e425b09f2e3e",tooltip="konwertuje Wektor na Point3D (potrzebne do rysowania)"];
}
