digraph "Wektor::dlugosc"
{
 // LATEX_PDF_SIZE
  edge [fontname="Helvetica",fontsize="10",labelfontname="Helvetica",labelfontsize="10"];
  node [fontname="Helvetica",fontsize="10",shape=record];
  rankdir="RL";
  Node1 [label="Wektor::dlugosc",height=0.2,width=0.4,color="black", fillcolor="grey75", style="filled", fontcolor="black",tooltip="Oblicza dlugosc wektora."];
  Node1 -> Node2 [dir="back",color="midnightblue",fontsize="10",style="solid",fontname="Helvetica"];
  Node2 [label="Plaskowyz::czy_nad",height=0.2,width=0.4,color="black", fillcolor="white", style="filled",URL="$class_plaskowyz.html#a2a2131671cbf9cab43f8586a3e48092e",tooltip="sprawdza czy nad elementem znajduje dron"];
  Node1 -> Node3 [dir="back",color="midnightblue",fontsize="10",style="solid",fontname="Helvetica"];
  Node3 [label="Wzgorze::czy_nad",height=0.2,width=0.4,color="black", fillcolor="white", style="filled",URL="$class_wzgorze.html#a84785ad4efcf3e41087e7ee8ea9f78fd",tooltip="sprawdza czy nad elementem znajduje dron"];
}
