digraph "Plaskowyz_prost::get_srodek"
{
 // LATEX_PDF_SIZE
  edge [fontname="Helvetica",fontsize="10",labelfontname="Helvetica",labelfontsize="10"];
  node [fontname="Helvetica",fontsize="10",shape=record];
  rankdir="RL";
  Node1 [label="Plaskowyz_prost::get\l_srodek",height=0.2,width=0.4,color="black", fillcolor="grey75", style="filled", fontcolor="black",tooltip="udostępnia srodek elementu Potrzebne do animacji lotu i wypisywania elementów krajobrazu"];
  Node1 -> Node2 [dir="back",color="midnightblue",fontsize="10",style="solid",fontname="Helvetica"];
  Node2 [label="Plaskowyz_prost::czy\l_ladowac",height=0.2,width=0.4,color="black", fillcolor="white", style="filled",URL="$class_plaskowyz__prost.html#af69bebc755282af303c85b154a460925",tooltip="zwraca informacje czy na tym elemencie można lądować"];
  Node1 -> Node3 [dir="back",color="midnightblue",fontsize="10",style="solid",fontname="Helvetica"];
  Node3 [label="Plaskowyz_prost::czy_nad",height=0.2,width=0.4,color="black", fillcolor="white", style="filled",URL="$class_plaskowyz__prost.html#a4fc9d33abfdb13741a88c8e69808443c",tooltip="sprawdza czy nad elementem znajduje dron"];
}
