digraph "Uklad_W"
{
 // LATEX_PDF_SIZE
  edge [fontname="Helvetica",fontsize="10",labelfontname="Helvetica",labelfontsize="10"];
  node [fontname="Helvetica",fontsize="10",shape=record];
  Node1 [label="Uklad_W",height=0.2,width=0.4,color="black", fillcolor="grey75", style="filled", fontcolor="black",tooltip="Modeluje układ współrzednych."];
  Node1 -> Node2 [dir="back",color="darkgreen",fontsize="10",style="solid",fontname="Helvetica"];
  Node2 [label="Dron",height=0.2,width=0.4,color="black", fillcolor="white", style="filled",URL="$class_dron.html",tooltip="Modeluje pojęcie drona z 4 wirnikami."];
  Node1 -> Node3 [dir="back",color="darkgreen",fontsize="10",style="solid",fontname="Helvetica"];
  Node3 [label="Dron2",height=0.2,width=0.4,color="black", fillcolor="white", style="filled",URL="$class_dron2.html",tooltip="Modeluje pojęcie drona z 3 wirnikami."];
  Node1 -> Node4 [dir="back",color="darkgreen",fontsize="10",style="solid",fontname="Helvetica"];
  Node4 [label="Dron3",height=0.2,width=0.4,color="black", fillcolor="white", style="filled",URL="$class_dron3.html",tooltip=" "];
  Node1 -> Node5 [dir="back",color="midnightblue",fontsize="10",style="solid",fontname="Helvetica"];
  Node5 [label="Graniastoslup6",height=0.2,width=0.4,color="black", fillcolor="white", style="filled",URL="$class_graniastoslup6.html",tooltip="Modeluje pojęcie graniastosłupa sześciokątnego foremnego."];
  Node1 -> Node6 [dir="back",color="midnightblue",fontsize="10",style="solid",fontname="Helvetica"];
  Node6 [label="Plaskowyz",height=0.2,width=0.4,color="black", fillcolor="white", style="filled",URL="$class_plaskowyz.html",tooltip="Modeluje pojęcie klasy Plaskowyz Modeluje pojęcie pojęcie klasy Plaskowyz jako elemtu krajobrazu w ks..."];
  Node1 -> Node7 [dir="back",color="midnightblue",fontsize="10",style="solid",fontname="Helvetica"];
  Node7 [label="Prostopadloscian",height=0.2,width=0.4,color="black", fillcolor="white", style="filled",URL="$class_prostopadloscian.html",tooltip="Modeluje pojęcie prostopadlościanu."];
  Node7 -> Node8 [dir="back",color="midnightblue",fontsize="10",style="solid",fontname="Helvetica"];
  Node8 [label="Plaskowyz_prost",height=0.2,width=0.4,color="black", fillcolor="white", style="filled",URL="$class_plaskowyz__prost.html",tooltip="Modeluje pojęcie klasy Plaskowyz_prost Modeluje pojęcie pojęcie klasy Plaskowyz_prost jako elemtu kra..."];
  Node1 -> Node9 [dir="back",color="midnightblue",fontsize="10",style="solid",fontname="Helvetica"];
  Node9 [label="Wzgorze",height=0.2,width=0.4,color="black", fillcolor="white", style="filled",URL="$class_wzgorze.html",tooltip="Modeluje pojęcie klasy Wzgorze Modeluje pojęcie pojęcie klasy Wzgorze jako elemtu krajobrazu w kształ..."];
}
