digraph "drawNS::Draw3DAPI::redraw"
{
 // LATEX_PDF_SIZE
  edge [fontname="Helvetica",fontsize="10",labelfontname="Helvetica",labelfontsize="10"];
  node [fontname="Helvetica",fontsize="10",shape=record];
  rankdir="RL";
  Node1 [label="drawNS::Draw3DAPI::\lredraw",height=0.2,width=0.4,color="black", fillcolor="grey75", style="filled", fontcolor="black",tooltip="replot all shapes Replots all shapes, works only in negative refresh_rate_ms value mode."];
  Node1 -> Node2 [dir="back",color="midnightblue",fontsize="10",style="solid",fontname="Helvetica"];
  Node2 [label="Scena::animacja",height=0.2,width=0.4,color="black", fillcolor="white", style="filled",URL="$class_scena.html#a2f318f09d333c0243035876d87b10807",tooltip="Animuje przelot drona."];
  Node2 -> Node3 [dir="back",color="midnightblue",fontsize="10",style="solid",fontname="Helvetica"];
  Node3 [label="main",height=0.2,width=0.4,color="black", fillcolor="white", style="filled",URL="$main_8cpp.html#ae66f6b31b5ad750f1fe042a706a4e3d4",tooltip=" "];
  Node1 -> Node4 [dir="back",color="midnightblue",fontsize="10",style="solid",fontname="Helvetica"];
  Node4 [label="Scena::rysuj_wszystkie",height=0.2,width=0.4,color="black", fillcolor="white", style="filled",URL="$class_scena.html#a4e6dd543d1a3d4ffd5241c0cb576b777",tooltip="Rysuje wszystkie elementy z kontenera Do_narysowania."];
  Node4 -> Node3 [dir="back",color="midnightblue",fontsize="10",style="solid",fontname="Helvetica"];
}
