digraph "Dron::get_promien"
{
 // LATEX_PDF_SIZE
  edge [fontname="Helvetica",fontsize="10",labelfontname="Helvetica",labelfontsize="10"];
  node [fontname="Helvetica",fontsize="10",shape=record];
  rankdir="LR";
  Node1 [label="Dron::get_promien",height=0.2,width=0.4,color="black", fillcolor="grey75", style="filled", fontcolor="black",tooltip="udostępnia odległość od środka do wierchołka korpusu Potrzebne do sprawdzania możliwości lądowania"];
  Node1 -> Node2 [color="midnightblue",fontsize="10",style="solid",fontname="Helvetica"];
  Node2 [label="Prostopadloscian::get\l_promien",height=0.2,width=0.4,color="black", fillcolor="white", style="filled",URL="$class_prostopadloscian.html#a3627f41f580c4b4f09b3a30544908e9f",tooltip="udostępnia odległość od środka do wierchołka prostopadłościanu Potrzebne do sprawdzania możliwości lą..."];
}
