digraph "Uklad_W"
{
 // LATEX_PDF_SIZE
  edge [fontname="Helvetica",fontsize="10",labelfontname="Helvetica",labelfontsize="10"];
  node [fontname="Helvetica",fontsize="10",shape=record];
  Node1 [label="Uklad_W",height=0.2,width=0.4,color="black", fillcolor="grey75", style="filled", fontcolor="black",tooltip="Modeluje układ współrzednych."];
  Node1 -> Node1 [dir="back",color="darkorchid3",fontsize="10",style="dashed",label=" rodzic" ,fontname="Helvetica"];
  Node2 -> Node1 [dir="back",color="darkorchid3",fontsize="10",style="dashed",label=" orientacja" ,fontname="Helvetica"];
  Node2 [label="Macierz_Rot\< 3 \>",height=0.2,width=0.4,color="black", fillcolor="white", style="filled",URL="$class_macierz___rot.html",tooltip=" "];
  Node3 -> Node1 [dir="back",color="darkorchid3",fontsize="10",style="dashed",label=" srodek" ,fontname="Helvetica"];
  Node3 [label="Wektor\< 3 \>",height=0.2,width=0.4,color="black", fillcolor="white", style="filled",URL="$class_wektor.html",tooltip=" "];
}
