digraph "Dron3::rysuj"
{
 // LATEX_PDF_SIZE
  edge [fontname="Helvetica",fontsize="10",labelfontname="Helvetica",labelfontsize="10"];
  node [fontname="Helvetica",fontsize="10",shape=record];
  rankdir="RL";
  Node1 [label="Dron3::rysuj",height=0.2,width=0.4,color="black", fillcolor="grey75", style="filled", fontcolor="black",tooltip="rysuje rysunek odpowiedniego kształtu w gnuplocie"];
  Node1 -> Node2 [dir="back",color="midnightblue",fontsize="10",style="solid",fontname="Helvetica"];
  Node2 [label="Dron3::lec_gora",height=0.2,width=0.4,color="black", fillcolor="white", style="filled",URL="$class_dron3.html#acd289a13711d24f1989db81702fb8fc9",tooltip="przesuwa środek drona o zadana wartość w górę i rysuje dron"];
  Node1 -> Node3 [dir="back",color="midnightblue",fontsize="10",style="solid",fontname="Helvetica"];
  Node3 [label="Dron3::lec_przod",height=0.2,width=0.4,color="black", fillcolor="white", style="filled",URL="$class_dron3.html#a2eab44bafc7077eedc616b6f8e02f07d",tooltip="przesuwa środek drona o zadana wartość w przód i rysuje dron"];
  Node1 -> Node4 [dir="back",color="midnightblue",fontsize="10",style="solid",fontname="Helvetica"];
  Node4 [label="Dron3::obroc",height=0.2,width=0.4,color="black", fillcolor="white", style="filled",URL="$class_dron3.html#a56ea993a4cc480a0792f1bd077f2f0df",tooltip="obraca dron o zadany kąt"];
  Node1 -> Node5 [dir="back",color="midnightblue",fontsize="10",style="solid",fontname="Helvetica"];
  Node5 [label="Dron3::przekrec_wirniki",height=0.2,width=0.4,color="black", fillcolor="white", style="filled",URL="$class_dron3.html#a2df732b7f78a35ae1c4b7eec76da8f28",tooltip="przekręca wszystkie wirniki o 15 stopni i rysuje dron"];
}
