digraph "/home/paulina/Documents/PO_2021/po_2021/Dron3/src" {
  compound=true
  node [ fontsize="10", fontname="Helvetica"];
  edge [ labelfontsize="10", labelfontname="Helvetica"];
  subgraph clusterdir_e785377f056e3c7c5aabdef0dbf448d5 {
    graph [ bgcolor="#ddddee", pencolor="black", label="Dron3" fontname="Helvetica", fontsize="10", URL="dir_e785377f056e3c7c5aabdef0dbf448d5.html"]
  dir_eca140fe50c4cfe7b295917c9e733262 [shape=box, label="src", style="filled", fillcolor="#eeeeff", pencolor="black", URL="dir_eca140fe50c4cfe7b295917c9e733262.html"];
  }
  dir_bad0813d0de1b4b927d4544010374d43 [shape=box label="inc" URL="dir_bad0813d0de1b4b927d4544010374d43.html"];
  dir_eca140fe50c4cfe7b295917c9e733262->dir_bad0813d0de1b4b927d4544010374d43 [headlabel="13", labeldistance=1.5 headhref="dir_000004_000003.html"];
}
