digraph "/home/paulina/Documents/PO_2021/po_2021/Dron/src" {
  compound=true
  node [ fontsize="10", fontname="Helvetica"];
  edge [ labelfontsize="10", labelfontname="Helvetica"];
  subgraph clusterdir_1b088c210fb87f6a77a58a4bb7a6c408 {
    graph [ bgcolor="#ddddee", pencolor="black", label="Dron" fontname="Helvetica", fontsize="10", URL="dir_1b088c210fb87f6a77a58a4bb7a6c408.html"]
  dir_234a4e749d0ae15a1491d400de5f22cd [shape=box, label="src", style="filled", fillcolor="#eeeeff", pencolor="black", URL="dir_234a4e749d0ae15a1491d400de5f22cd.html"];
  }
  dir_d1900909c5a7afa9101ee4787bdb0731 [shape=box label="inc" URL="dir_d1900909c5a7afa9101ee4787bdb0731.html"];
  dir_234a4e749d0ae15a1491d400de5f22cd->dir_d1900909c5a7afa9101ee4787bdb0731 [headlabel="13", labeldistance=1.5 headhref="dir_000004_000003.html"];
}
