digraph "main"
{
 // LATEX_PDF_SIZE
  edge [fontname="Helvetica",fontsize="10",labelfontname="Helvetica",labelfontsize="10"];
  node [fontname="Helvetica",fontsize="10",shape=record];
  rankdir="LR";
  Node1 [label="main",height=0.2,width=0.4,color="black", fillcolor="grey75", style="filled", fontcolor="black",tooltip=" "];
  Node1 -> Node2 [color="midnightblue",fontsize="10",style="solid",fontname="Helvetica"];
  Node2 [label="Scena::animacja",height=0.2,width=0.4,color="black", fillcolor="white", style="filled",URL="$class_scena.html#a2f318f09d333c0243035876d87b10807",tooltip="Animuje przelot drona."];
  Node2 -> Node3 [color="midnightblue",fontsize="10",style="solid",fontname="Helvetica"];
  Node3 [label="Scena::czy_mozna_ladowac",height=0.2,width=0.4,color="black", fillcolor="white", style="filled",URL="$class_scena.html#abe21cbdd9966fd2e56c530a1642bd3b6",tooltip="sprawdza czy można wykonać lądowanie aktywnym dronem"];
  Node2 -> Node4 [color="midnightblue",fontsize="10",style="solid",fontname="Helvetica"];
  Node4 [label="drawNS::Draw3DAPI::\lredraw",height=0.2,width=0.4,color="black", fillcolor="white", style="filled",URL="$classdraw_n_s_1_1_draw3_d_a_p_i.html#ae88121104d2eeb8936f8dc1b68fc3bbf",tooltip="replot all shapes Replots all shapes, works only in negative refresh_rate_ms value mode."];
  Node1 -> Node5 [color="midnightblue",fontsize="10",style="solid",fontname="Helvetica"];
  Node5 [label="Scena::dodaj_dron",height=0.2,width=0.4,color="black", fillcolor="white", style="filled",URL="$class_scena.html#aa07aa43fca5aeeb77d28518a1e8920af",tooltip="dodaje nowy dron do kolejkcji Drony i do kolekcji Elementy_krajobrazu"];
  Node1 -> Node6 [color="midnightblue",fontsize="10",style="solid",fontname="Helvetica"];
  Node6 [label="Scena::dodaj_elem_kraj",height=0.2,width=0.4,color="black", fillcolor="white", style="filled",URL="$class_scena.html#a26efcc91f2968a6c90c49069c71579a9",tooltip="dodaje nowy element do kolekcji Elementy_krajobrazu"];
  Node1 -> Node7 [color="midnightblue",fontsize="10",style="solid",fontname="Helvetica"];
  Node7 [label="Scena::pokaz_drony",height=0.2,width=0.4,color="black", fillcolor="white", style="filled",URL="$class_scena.html#a806c7a3b7a8869ae940e59ebae55f150",tooltip="wypisuje wszystkie dronyu znajdujące się obecnie na scenie"];
  Node1 -> Node8 [color="midnightblue",fontsize="10",style="solid",fontname="Helvetica"];
  Node8 [label="Scena::pokaz_elem_kraj",height=0.2,width=0.4,color="black", fillcolor="white", style="filled",URL="$class_scena.html#a26fb69a84b94ddc012f948fd25328b66",tooltip="wypisuje wszystkie elementy znajdujące się obecnie na scenie"];
  Node1 -> Node9 [color="midnightblue",fontsize="10",style="solid",fontname="Helvetica"];
  Node9 [label="Scena::rysuj_wszystkie",height=0.2,width=0.4,color="black", fillcolor="white", style="filled",URL="$class_scena.html#a4e6dd543d1a3d4ffd5241c0cb576b777",tooltip="Rysuje wszystkie elementy z kontenera Do_narysowania."];
  Node9 -> Node4 [color="midnightblue",fontsize="10",style="solid",fontname="Helvetica"];
  Node1 -> Node10 [color="midnightblue",fontsize="10",style="solid",fontname="Helvetica"];
  Node10 [label="Scena::usun_dron",height=0.2,width=0.4,color="black", fillcolor="white", style="filled",URL="$class_scena.html#a81cdbd5a86635706cdff00517524b31d",tooltip="usuwa wybrany przez użytkownika dron z kolekcji Elementy_krajobrazu i kolejkcji Drony"];
  Node10 -> Node7 [color="midnightblue",fontsize="10",style="solid",fontname="Helvetica"];
  Node10 -> Node11 [color="midnightblue",fontsize="10",style="solid",fontname="Helvetica"];
  Node11 [label="Scena::wybierz_dron",height=0.2,width=0.4,color="black", fillcolor="white", style="filled",URL="$class_scena.html#a200e2b740c27a869252320e9d323bc1a",tooltip="umożliwia użytkownikowi zmianę aktywnego drona na inny z znajdujążch się obecnie na scenie"];
  Node11 -> Node7 [color="midnightblue",fontsize="10",style="solid",fontname="Helvetica"];
  Node1 -> Node12 [color="midnightblue",fontsize="10",style="solid",fontname="Helvetica"];
  Node12 [label="Scena::usun_elem_kraj",height=0.2,width=0.4,color="black", fillcolor="white", style="filled",URL="$class_scena.html#aa07881711368ad77a4f5e3e3cf34ef29",tooltip="usuwa wybrany przez użytkownika element z kolekcji Elementy_krajobrazu"];
  Node12 -> Node8 [color="midnightblue",fontsize="10",style="solid",fontname="Helvetica"];
  Node1 -> Node13 [color="midnightblue",fontsize="10",style="solid",fontname="Helvetica"];
  Node13 [label="Scena::usun_wszystkie",height=0.2,width=0.4,color="black", fillcolor="white", style="filled",URL="$class_scena.html#a51f0c2bd16b5c8ff4dc7fdb90b795a3b",tooltip="Usuwa wszystkie rysunki elementów z kontenera Do_narysowania."];
  Node1 -> Node11 [color="midnightblue",fontsize="10",style="solid",fontname="Helvetica"];
  Node1 -> Node14 [color="midnightblue",fontsize="10",style="solid",fontname="Helvetica"];
  Node14 [label="wyswietl_menu",height=0.2,width=0.4,color="black", fillcolor="white", style="filled",URL="$main_8cpp.html#a4c4d61fabfebcaa5ba706952073e4b28",tooltip=" "];
}
